{
  "CollectionCuenta": [{
    "idCuenta": "1234567890",
    "fechaRegistro": "01/01/2018 03:34:33",
    "tipoRegistro": "0",
    "aliasDestinatario": "JCJobs",
    "nombreDestinatario": "JC Torvalds Gates",
    "rfc": "PDJ871015HHGRLN07",
    "email": "jcperez@na-at.com.mx",
    "cuenta": "abcd1234567891",
    "institucionDestino": "0",
    "montoMaximo": "123456789012345,12",
    "numOperacionesMes": "123",
    "tipoCuenta": "1",
    "favorita": "1"
  }, {
    "idCuenta": "1234567891",
    "fechaRegistro": "01/01/2018 03:34:33",
    "tipoRegistro": "0",
    "aliasDestinatario": "JCMusk",
    "nombreDestinatario": "Steve Jobs",
    "rfc": "PDJ871015HHGRLN07",
    "email": "jcperez@na-at.com.mx",
    "cuenta": "abcd1234567892",
    "institucionDestino": "0",
    "montoMaximo": "89012345,12",
    "numOperacionesMes": "123",
    "tipoCuenta": "1",
    "favorita": "0"
  }, {
    "idCuenta": "1234567892",
    "fechaRegistro": "01/01/2018 03:34:33",
    "tipoRegistro": "1",
    "aliasDestinatario": "JCGates",
    "nombreDestinatario": "Bill Gates",
    "rfc": "PDJ871015HHGRLN07",
    "email": "jcperez@na-at.com.mx",
    "cuenta": "abcd1234567893",
    "institucionDestino": "12345",
    "montoMaximo": "12345,12",
    "numOperacionesMes": "123",
    "tipoCuenta": "1",
    "favorita": "1"
  }, {
    "idCuenta": "1234567893",
    "fechaRegistro": "01/01/2018 03:34:33",
    "tipoRegistro": "1",
    "aliasDestinatario": "JCTorvalds",
    "nombreDestinatario": "Elon Musk",
    "rfc": "PDJ871015HHGRLN07",
    "email": "jcperez@na-at.com.mx",
    "cuenta": "abcd1234567894",
    "institucionDestino": "12345",
    "montoMaximo": "12342345,12",
    "numOperacionesMes": "123",
    "tipoCuenta": "1",
    "favorita": "0"
  }],
  "resultado": "0000",
  "descripcionResultado": "OK"
}