{
  "cuentaElemento": [{
    "numCuenta": "abc123456789",
    "descripcionProducto": "Descripción del producto al cual pertenece la cuenta",
    "statusCuenta": "activo",
    "fechaApertura": "01/01/2018 03:34:33",
    "aplicaTransferencias": "1",
    "moneda": "MNX"
  }],
  "resultado": "0000",
  "descripcionResultado": "OK"
}