{
  "nombreUsuario": "JC Jobs Musk",
  "fechaUltimaSesion": "01/01/2018 03:34:33",
  "mensaje": "Mereces lo que sueñas.",
  "avatar": "base64:.......",
  "resultado": "0000",
  "descripcionResultado": "OK"
}