{
  "NombreOfuscado": "J*** C*** P*** D***",
  "Imagen": "base64:.......",
  "fraseSeguridad": "Mereces lo que sueñas.",
  "sessionID": "1234567890123456",
  "resultado": "0000",
  "descripcionResultado": "OK"
}