{
  "numCliente": "871287217",
  "nombreCliente": "Juan Carlos Pérez Delgadillo",
  "tipoCliente": "PF",
  "statusCliente": "activo",
  "statusCuenta": "activa",
  "resultado": "0000",
  "descripcionResultado": "OK"
}